[
    {
        "postId": 1,
        "title": "Post title",
        "content": "Post content",
        "createdAt": "2024-07-30T13:58:10.580Z",
        "picture": null,
        "isVisible": false,
        "userId": "clz8f6g610000136tadhifrnw",
        "groupId": 2,
        "user": {
            "username": "johndoe"
        },
        "likes": [],
        "comments": [],
        "likesCount": 0,
        "commentsCount": 0
    }
]